-- Merging decision tree log ---
manifest
ADDED from E:\GANDHA\AndroidProject\Production\SuperRetail\superRetail\src\main\AndroidManifest.xml:2:1-167:12
INJECTED from E:\GANDHA\AndroidProject\Production\SuperRetail\superRetail\src\main\AndroidManifest.xml:2:1-167:12
INJECTED from E:\GANDHA\AndroidProject\Production\SuperRetail\superRetail\src\main\AndroidManifest.xml:2:1-167:12
INJECTED from E:\GANDHA\AndroidProject\Production\SuperRetail\superRetail\src\main\AndroidManifest.xml:2:1-167:12
MERGED from [com.android.support:appcompat-v7:27.1.1] C:\Users\user\.gradle\caches\transforms-1\files-1.1\appcompat-v7-27.1.1.aar\78d585637e38a05865ab52fa839dcfc7\AndroidManifest.xml:17:1-22:12
MERGED from [com.android.support:support-v4:27.1.1] C:\Users\user\.gradle\caches\transforms-1\files-1.1\support-v4-27.1.1.aar\a797894e3538df89b307b5d110c17f91\AndroidManifest.xml:17:1-22:12
MERGED from [com.android.support:support-fragment:27.1.1] C:\Users\user\.gradle\caches\transforms-1\files-1.1\support-fragment-27.1.1.aar\86858b3d73737565b762afacea6629ed\AndroidManifest.xml:17:1-22:12
MERGED from [com.android.support:animated-vector-drawable:27.1.1] C:\Users\user\.gradle\caches\transforms-1\files-1.1\animated-vector-drawable-27.1.1.aar\b6d448df90385b1d1bc73e99c8a72d97\AndroidManifest.xml:17:1-22:12
MERGED from [com.android.support:support-core-ui:27.1.1] C:\Users\user\.gradle\caches\transforms-1\files-1.1\support-core-ui-27.1.1.aar\5886df34a5b3dabb54714bc620462594\AndroidManifest.xml:17:1-22:12
MERGED from [com.android.support:support-core-utils:27.1.1] C:\Users\user\.gradle\caches\transforms-1\files-1.1\support-core-utils-27.1.1.aar\dd25e07bfdcc84821a5abda0e79d7dfe\AndroidManifest.xml:17:1-22:12
MERGED from [com.android.support:support-vector-drawable:27.1.1] C:\Users\user\.gradle\caches\transforms-1\files-1.1\support-vector-drawable-27.1.1.aar\d01e801dadfafaa51498433ff73dc459\AndroidManifest.xml:17:1-22:12
MERGED from [com.android.support:support-media-compat:27.1.1] C:\Users\user\.gradle\caches\transforms-1\files-1.1\support-media-compat-27.1.1.aar\c3e189e73d51b0de8cc1b726b9526c93\AndroidManifest.xml:17:1-22:12
MERGED from [com.android.support:support-compat:27.1.1] C:\Users\user\.gradle\caches\transforms-1\files-1.1\support-compat-27.1.1.aar\9af35729cb412f8fcce03a506bca52bd\AndroidManifest.xml:17:1-22:12
MERGED from [android.arch.lifecycle:livedata-core:1.1.0] C:\Users\user\.gradle\caches\transforms-1\files-1.1\livedata-core-1.1.0.aar\238a54e43c53eb4faad470e3cd53fe60\AndroidManifest.xml:17:1-22:12
MERGED from [android.arch.lifecycle:viewmodel:1.1.0] C:\Users\user\.gradle\caches\transforms-1\files-1.1\viewmodel-1.1.0.aar\19c4ea752263ded13f4b671bc855ac8d\AndroidManifest.xml:17:1-22:12
MERGED from [android.arch.lifecycle:runtime:1.1.0] C:\Users\user\.gradle\caches\transforms-1\files-1.1\runtime-1.1.0.aar\8d1cd4b0f6e368c927907252f938b1b1\AndroidManifest.xml:17:1-22:12
MERGED from [android.arch.core:runtime:1.1.0] C:\Users\user\.gradle\caches\transforms-1\files-1.1\runtime-1.1.0.aar\38a747651361d5cf71134b56b14f5396\AndroidManifest.xml:17:1-22:12
INJECTED from E:\GANDHA\AndroidProject\Production\SuperRetail\superRetail\src\main\AndroidManifest.xml:2:1-167:12
INJECTED from E:\GANDHA\AndroidProject\Production\SuperRetail\superRetail\src\main\AndroidManifest.xml:2:1-167:12
INJECTED from E:\GANDHA\AndroidProject\Production\SuperRetail\superRetail\src\main\AndroidManifest.xml:2:1-167:12
	package
		ADDED from E:\GANDHA\AndroidProject\Production\SuperRetail\superRetail\src\main\AndroidManifest.xml:3:5-35
		INJECTED from E:\GANDHA\AndroidProject\Production\SuperRetail\superRetail\src\main\AndroidManifest.xml
		INJECTED from E:\GANDHA\AndroidProject\Production\SuperRetail\superRetail\src\main\AndroidManifest.xml
	android:versionName
		ADDED from E:\GANDHA\AndroidProject\Production\SuperRetail\superRetail\src\main\AndroidManifest.xml:5:5-30
		INJECTED from E:\GANDHA\AndroidProject\Production\SuperRetail\superRetail\src\main\AndroidManifest.xml
		INJECTED from E:\GANDHA\AndroidProject\Production\SuperRetail\superRetail\src\main\AndroidManifest.xml
	xmlns:android
		ADDED from E:\GANDHA\AndroidProject\Production\SuperRetail\superRetail\src\main\AndroidManifest.xml:2:11-69
	android:versionCode
		ADDED from E:\GANDHA\AndroidProject\Production\SuperRetail\superRetail\src\main\AndroidManifest.xml:4:5-28
		INJECTED from E:\GANDHA\AndroidProject\Production\SuperRetail\superRetail\src\main\AndroidManifest.xml
		INJECTED from E:\GANDHA\AndroidProject\Production\SuperRetail\superRetail\src\main\AndroidManifest.xml
uses-feature#android.hardware.camera
ADDED from E:\GANDHA\AndroidProject\Production\SuperRetail\superRetail\src\main\AndroidManifest.xml:7:5-9:35
	android:required
		ADDED from E:\GANDHA\AndroidProject\Production\SuperRetail\superRetail\src\main\AndroidManifest.xml:9:9-32
	android:name
		ADDED from E:\GANDHA\AndroidProject\Production\SuperRetail\superRetail\src\main\AndroidManifest.xml:8:9-47
uses-permission#android.permission.INTERNET
ADDED from E:\GANDHA\AndroidProject\Production\SuperRetail\superRetail\src\main\AndroidManifest.xml:11:5-67
	android:name
		ADDED from E:\GANDHA\AndroidProject\Production\SuperRetail\superRetail\src\main\AndroidManifest.xml:11:22-64
uses-permission#android.permission.CAMERA
ADDED from E:\GANDHA\AndroidProject\Production\SuperRetail\superRetail\src\main\AndroidManifest.xml:12:5-65
	android:name
		ADDED from E:\GANDHA\AndroidProject\Production\SuperRetail\superRetail\src\main\AndroidManifest.xml:12:22-62
uses-permission#android.permission.WRITE_EXTERNAL_STORAGE
ADDED from E:\GANDHA\AndroidProject\Production\SuperRetail\superRetail\src\main\AndroidManifest.xml:13:5-81
	android:name
		ADDED from E:\GANDHA\AndroidProject\Production\SuperRetail\superRetail\src\main\AndroidManifest.xml:13:22-78
uses-permission#android.permission.READ_EXTERNAL_STORAGE
ADDED from E:\GANDHA\AndroidProject\Production\SuperRetail\superRetail\src\main\AndroidManifest.xml:14:5-80
	android:name
		ADDED from E:\GANDHA\AndroidProject\Production\SuperRetail\superRetail\src\main\AndroidManifest.xml:14:22-77
uses-permission#android.permission.ACCESS_FINE_LOCATION
ADDED from E:\GANDHA\AndroidProject\Production\SuperRetail\superRetail\src\main\AndroidManifest.xml:15:5-79
	android:name
		ADDED from E:\GANDHA\AndroidProject\Production\SuperRetail\superRetail\src\main\AndroidManifest.xml:15:22-76
uses-permission#com.google.android.providers.gsf.permission.READ_GSERVICES
ADDED from E:\GANDHA\AndroidProject\Production\SuperRetail\superRetail\src\main\AndroidManifest.xml:16:5-98
	android:name
		ADDED from E:\GANDHA\AndroidProject\Production\SuperRetail\superRetail\src\main\AndroidManifest.xml:16:22-95
uses-permission#android.permission.READ_PHONE_STATE
ADDED from E:\GANDHA\AndroidProject\Production\SuperRetail\superRetail\src\main\AndroidManifest.xml:18:5-75
	android:name
		ADDED from E:\GANDHA\AndroidProject\Production\SuperRetail\superRetail\src\main\AndroidManifest.xml:18:22-72
application
ADDED from E:\GANDHA\AndroidProject\Production\SuperRetail\superRetail\src\main\AndroidManifest.xml:20:5-165:19
	android:label
		ADDED from E:\GANDHA\AndroidProject\Production\SuperRetail\superRetail\src\main\AndroidManifest.xml:24:9-41
	android:icon
		ADDED from E:\GANDHA\AndroidProject\Production\SuperRetail\superRetail\src\main\AndroidManifest.xml:23:9-38
	android:allowBackup
		ADDED from E:\GANDHA\AndroidProject\Production\SuperRetail\superRetail\src\main\AndroidManifest.xml:22:9-35
	android:theme
		ADDED from E:\GANDHA\AndroidProject\Production\SuperRetail\superRetail\src\main\AndroidManifest.xml:25:9-62
	android:name
		ADDED from E:\GANDHA\AndroidProject\Production\SuperRetail\superRetail\src\main\AndroidManifest.xml:21:9-51
activity#com.joan.superretail.MenuActivity
ADDED from E:\GANDHA\AndroidProject\Production\SuperRetail\superRetail\src\main\AndroidManifest.xml:26:9-29:52
	android:screenOrientation
		ADDED from E:\GANDHA\AndroidProject\Production\SuperRetail\superRetail\src\main\AndroidManifest.xml:29:13-49
	android:label
		ADDED from E:\GANDHA\AndroidProject\Production\SuperRetail\superRetail\src\main\AndroidManifest.xml:28:13-45
	android:name
		ADDED from E:\GANDHA\AndroidProject\Production\SuperRetail\superRetail\src\main\AndroidManifest.xml:27:13-41
activity#com.joan.superretail.SplashActivity
ADDED from E:\GANDHA\AndroidProject\Production\SuperRetail\superRetail\src\main\AndroidManifest.xml:30:9-39:20
	android:screenOrientation
		ADDED from E:\GANDHA\AndroidProject\Production\SuperRetail\superRetail\src\main\AndroidManifest.xml:33:13-49
	android:label
		ADDED from E:\GANDHA\AndroidProject\Production\SuperRetail\superRetail\src\main\AndroidManifest.xml:32:13-45
	android:name
		ADDED from E:\GANDHA\AndroidProject\Production\SuperRetail\superRetail\src\main\AndroidManifest.xml:31:13-43
intent-filter#action:name:android.intent.action.MAIN+category:name:android.intent.category.LAUNCHER
ADDED from E:\GANDHA\AndroidProject\Production\SuperRetail\superRetail\src\main\AndroidManifest.xml:34:13-38:29
action#android.intent.action.MAIN
ADDED from E:\GANDHA\AndroidProject\Production\SuperRetail\superRetail\src\main\AndroidManifest.xml:35:17-69
	android:name
		ADDED from E:\GANDHA\AndroidProject\Production\SuperRetail\superRetail\src\main\AndroidManifest.xml:35:25-66
category#android.intent.category.LAUNCHER
ADDED from E:\GANDHA\AndroidProject\Production\SuperRetail\superRetail\src\main\AndroidManifest.xml:37:17-77
	android:name
		ADDED from E:\GANDHA\AndroidProject\Production\SuperRetail\superRetail\src\main\AndroidManifest.xml:37:27-74
activity#com.joan.superretail.LoginActivity
ADDED from E:\GANDHA\AndroidProject\Production\SuperRetail\superRetail\src\main\AndroidManifest.xml:40:9-43:52
	android:screenOrientation
		ADDED from E:\GANDHA\AndroidProject\Production\SuperRetail\superRetail\src\main\AndroidManifest.xml:43:13-49
	android:label
		ADDED from E:\GANDHA\AndroidProject\Production\SuperRetail\superRetail\src\main\AndroidManifest.xml:42:13-57
	android:name
		ADDED from E:\GANDHA\AndroidProject\Production\SuperRetail\superRetail\src\main\AndroidManifest.xml:41:13-42
activity#com.joan.superretail.MultiPelangganListActivity
ADDED from E:\GANDHA\AndroidProject\Production\SuperRetail\superRetail\src\main\AndroidManifest.xml:44:9-47:53
	android:screenOrientation
		ADDED from E:\GANDHA\AndroidProject\Production\SuperRetail\superRetail\src\main\AndroidManifest.xml:47:13-50
	android:label
		ADDED from E:\GANDHA\AndroidProject\Production\SuperRetail\superRetail\src\main\AndroidManifest.xml:46:13-63
	android:name
		ADDED from E:\GANDHA\AndroidProject\Production\SuperRetail\superRetail\src\main\AndroidManifest.xml:45:13-55
activity#com.joan.superretail.ListPelangganActivity
ADDED from E:\GANDHA\AndroidProject\Production\SuperRetail\superRetail\src\main\AndroidManifest.xml:48:9-51:52
	android:screenOrientation
		ADDED from E:\GANDHA\AndroidProject\Production\SuperRetail\superRetail\src\main\AndroidManifest.xml:51:13-49
	android:label
		ADDED from E:\GANDHA\AndroidProject\Production\SuperRetail\superRetail\src\main\AndroidManifest.xml:50:13-66
	android:name
		ADDED from E:\GANDHA\AndroidProject\Production\SuperRetail\superRetail\src\main\AndroidManifest.xml:49:13-50
activity#com.joan.superretail.ListKategoriActivity
ADDED from E:\GANDHA\AndroidProject\Production\SuperRetail\superRetail\src\main\AndroidManifest.xml:52:9-55:52
	android:screenOrientation
		ADDED from E:\GANDHA\AndroidProject\Production\SuperRetail\superRetail\src\main\AndroidManifest.xml:55:13-49
	android:label
		ADDED from E:\GANDHA\AndroidProject\Production\SuperRetail\superRetail\src\main\AndroidManifest.xml:54:13-65
	android:name
		ADDED from E:\GANDHA\AndroidProject\Production\SuperRetail\superRetail\src\main\AndroidManifest.xml:53:13-49
activity#com.joan.superretail.OrderActivity
ADDED from E:\GANDHA\AndroidProject\Production\SuperRetail\superRetail\src\main\AndroidManifest.xml:56:9-60:68
	android:screenOrientation
		ADDED from E:\GANDHA\AndroidProject\Production\SuperRetail\superRetail\src\main\AndroidManifest.xml:59:13-49
	android:label
		ADDED from E:\GANDHA\AndroidProject\Production\SuperRetail\superRetail\src\main\AndroidManifest.xml:58:13-57
	android:windowSoftInputMode
		ADDED from E:\GANDHA\AndroidProject\Production\SuperRetail\superRetail\src\main\AndroidManifest.xml:60:13-65
	android:name
		ADDED from E:\GANDHA\AndroidProject\Production\SuperRetail\superRetail\src\main\AndroidManifest.xml:57:13-42
activity#com.joan.superretail.ItemListActivity
ADDED from E:\GANDHA\AndroidProject\Production\SuperRetail\superRetail\src\main\AndroidManifest.xml:61:9-64:53
	android:screenOrientation
		ADDED from E:\GANDHA\AndroidProject\Production\SuperRetail\superRetail\src\main\AndroidManifest.xml:64:13-50
	android:label
		ADDED from E:\GANDHA\AndroidProject\Production\SuperRetail\superRetail\src\main\AndroidManifest.xml:63:13-52
	android:name
		ADDED from E:\GANDHA\AndroidProject\Production\SuperRetail\superRetail\src\main\AndroidManifest.xml:62:13-45
activity#com.joan.superretail.ItemDetailActivity
ADDED from E:\GANDHA\AndroidProject\Production\SuperRetail\superRetail\src\main\AndroidManifest.xml:65:9-73:20
	android:screenOrientation
		ADDED from E:\GANDHA\AndroidProject\Production\SuperRetail\superRetail\src\main\AndroidManifest.xml:69:13-50
	android:parentActivityName
		ADDED from E:\GANDHA\AndroidProject\Production\SuperRetail\superRetail\src\main\AndroidManifest.xml:68:13-59
	android:label
		ADDED from E:\GANDHA\AndroidProject\Production\SuperRetail\superRetail\src\main\AndroidManifest.xml:67:13-54
	android:name
		ADDED from E:\GANDHA\AndroidProject\Production\SuperRetail\superRetail\src\main\AndroidManifest.xml:66:13-47
meta-data#android.support.PARENT_ACTIVITY
ADDED from E:\GANDHA\AndroidProject\Production\SuperRetail\superRetail\src\main\AndroidManifest.xml:70:13-72:73
	android:value
		ADDED from E:\GANDHA\AndroidProject\Production\SuperRetail\superRetail\src\main\AndroidManifest.xml:72:17-70
	android:name
		ADDED from E:\GANDHA\AndroidProject\Production\SuperRetail\superRetail\src\main\AndroidManifest.xml:71:17-63
activity#com.joan.superretail.ArReminderDetailActivity
ADDED from E:\GANDHA\AndroidProject\Production\SuperRetail\superRetail\src\main\AndroidManifest.xml:74:9-77:53
	android:screenOrientation
		ADDED from E:\GANDHA\AndroidProject\Production\SuperRetail\superRetail\src\main\AndroidManifest.xml:77:13-50
	android:label
		ADDED from E:\GANDHA\AndroidProject\Production\SuperRetail\superRetail\src\main\AndroidManifest.xml:76:13-70
	android:name
		ADDED from E:\GANDHA\AndroidProject\Production\SuperRetail\superRetail\src\main\AndroidManifest.xml:75:13-53
activity#com.joan.superretail.InputPasswordActivity
ADDED from E:\GANDHA\AndroidProject\Production\SuperRetail\superRetail\src\main\AndroidManifest.xml:78:9-82:59
	android:screenOrientation
		ADDED from E:\GANDHA\AndroidProject\Production\SuperRetail\superRetail\src\main\AndroidManifest.xml:81:13-49
	android:label
		ADDED from E:\GANDHA\AndroidProject\Production\SuperRetail\superRetail\src\main\AndroidManifest.xml:80:13-66
	android:theme
		ADDED from E:\GANDHA\AndroidProject\Production\SuperRetail\superRetail\src\main\AndroidManifest.xml:82:13-56
	android:name
		ADDED from E:\GANDHA\AndroidProject\Production\SuperRetail\superRetail\src\main\AndroidManifest.xml:79:13-50
activity#com.joan.superretail.CheckOutActivity
ADDED from E:\GANDHA\AndroidProject\Production\SuperRetail\superRetail\src\main\AndroidManifest.xml:83:9-87:55
	android:screenOrientation
		ADDED from E:\GANDHA\AndroidProject\Production\SuperRetail\superRetail\src\main\AndroidManifest.xml:86:13-49
	android:label
		ADDED from E:\GANDHA\AndroidProject\Production\SuperRetail\superRetail\src\main\AndroidManifest.xml:85:13-61
	android:windowSoftInputMode
		ADDED from E:\GANDHA\AndroidProject\Production\SuperRetail\superRetail\src\main\AndroidManifest.xml:87:13-52
	android:name
		ADDED from E:\GANDHA\AndroidProject\Production\SuperRetail\superRetail\src\main\AndroidManifest.xml:84:13-45
activity#com.joan.superretail.InvoiceActivity
ADDED from E:\GANDHA\AndroidProject\Production\SuperRetail\superRetail\src\main\AndroidManifest.xml:88:9-91:52
	android:screenOrientation
		ADDED from E:\GANDHA\AndroidProject\Production\SuperRetail\superRetail\src\main\AndroidManifest.xml:91:13-49
	android:label
		ADDED from E:\GANDHA\AndroidProject\Production\SuperRetail\superRetail\src\main\AndroidManifest.xml:90:13-59
	android:name
		ADDED from E:\GANDHA\AndroidProject\Production\SuperRetail\superRetail\src\main\AndroidManifest.xml:89:13-44
receiver#com.joan.superretail.receiver.NetworkStateReceiver
ADDED from E:\GANDHA\AndroidProject\Production\SuperRetail\superRetail\src\main\AndroidManifest.xml:93:9-97:20
	android:name
		ADDED from E:\GANDHA\AndroidProject\Production\SuperRetail\superRetail\src\main\AndroidManifest.xml:93:19-64
intent-filter#action:name:android.net.conn.CONNECTIVITY_CHANGE
ADDED from E:\GANDHA\AndroidProject\Production\SuperRetail\superRetail\src\main\AndroidManifest.xml:94:13-96:29
action#android.net.conn.CONNECTIVITY_CHANGE
ADDED from E:\GANDHA\AndroidProject\Production\SuperRetail\superRetail\src\main\AndroidManifest.xml:95:17-79
	android:name
		ADDED from E:\GANDHA\AndroidProject\Production\SuperRetail\superRetail\src\main\AndroidManifest.xml:95:25-76
receiver#com.joan.superretail.receiver.BootReceiver
ADDED from E:\GANDHA\AndroidProject\Production\SuperRetail\superRetail\src\main\AndroidManifest.xml:98:9-102:20
	android:name
		ADDED from E:\GANDHA\AndroidProject\Production\SuperRetail\superRetail\src\main\AndroidManifest.xml:98:19-56
intent-filter#action:name:android.intent.action.BOOT_COMPLETED
ADDED from E:\GANDHA\AndroidProject\Production\SuperRetail\superRetail\src\main\AndroidManifest.xml:99:13-101:29
action#android.intent.action.BOOT_COMPLETED
ADDED from E:\GANDHA\AndroidProject\Production\SuperRetail\superRetail\src\main\AndroidManifest.xml:100:17-79
	android:name
		ADDED from E:\GANDHA\AndroidProject\Production\SuperRetail\superRetail\src\main\AndroidManifest.xml:100:25-76
service#com.joan.superretail.service.DataServices
ADDED from E:\GANDHA\AndroidProject\Production\SuperRetail\superRetail\src\main\AndroidManifest.xml:104:9-106:45
	android:label
		ADDED from E:\GANDHA\AndroidProject\Production\SuperRetail\superRetail\src\main\AndroidManifest.xml:106:13-42
	android:name
		ADDED from E:\GANDHA\AndroidProject\Production\SuperRetail\superRetail\src\main\AndroidManifest.xml:105:13-49
activity#com.joan.superretail.SOReportActivity
ADDED from E:\GANDHA\AndroidProject\Production\SuperRetail\superRetail\src\main\AndroidManifest.xml:108:9-111:53
	android:screenOrientation
		ADDED from E:\GANDHA\AndroidProject\Production\SuperRetail\superRetail\src\main\AndroidManifest.xml:111:13-50
	android:label
		ADDED from E:\GANDHA\AndroidProject\Production\SuperRetail\superRetail\src\main\AndroidManifest.xml:110:13-60
	android:name
		ADDED from E:\GANDHA\AndroidProject\Production\SuperRetail\superRetail\src\main\AndroidManifest.xml:109:13-45
activity#com.joan.superretail.DeliveryActivity
ADDED from E:\GANDHA\AndroidProject\Production\SuperRetail\superRetail\src\main\AndroidManifest.xml:112:9-115:53
	android:screenOrientation
		ADDED from E:\GANDHA\AndroidProject\Production\SuperRetail\superRetail\src\main\AndroidManifest.xml:115:13-50
	android:label
		ADDED from E:\GANDHA\AndroidProject\Production\SuperRetail\superRetail\src\main\AndroidManifest.xml:114:13-60
	android:name
		ADDED from E:\GANDHA\AndroidProject\Production\SuperRetail\superRetail\src\main\AndroidManifest.xml:113:13-45
activity#com.joan.superretail.ReturnReportActivity
ADDED from E:\GANDHA\AndroidProject\Production\SuperRetail\superRetail\src\main\AndroidManifest.xml:116:9-119:53
	android:screenOrientation
		ADDED from E:\GANDHA\AndroidProject\Production\SuperRetail\superRetail\src\main\AndroidManifest.xml:119:13-50
	android:label
		ADDED from E:\GANDHA\AndroidProject\Production\SuperRetail\superRetail\src\main\AndroidManifest.xml:118:13-65
	android:name
		ADDED from E:\GANDHA\AndroidProject\Production\SuperRetail\superRetail\src\main\AndroidManifest.xml:117:13-49
activity#com.joan.superretail.DateChooserActivity
ADDED from E:\GANDHA\AndroidProject\Production\SuperRetail\superRetail\src\main\AndroidManifest.xml:120:9-123:53
	android:screenOrientation
		ADDED from E:\GANDHA\AndroidProject\Production\SuperRetail\superRetail\src\main\AndroidManifest.xml:123:13-50
	android:label
		ADDED from E:\GANDHA\AndroidProject\Production\SuperRetail\superRetail\src\main\AndroidManifest.xml:122:13-64
	android:name
		ADDED from E:\GANDHA\AndroidProject\Production\SuperRetail\superRetail\src\main\AndroidManifest.xml:121:13-48
activity#com.joan.superretail.SinglePelangganActivity
ADDED from E:\GANDHA\AndroidProject\Production\SuperRetail\superRetail\src\main\AndroidManifest.xml:124:9-127:53
	android:screenOrientation
		ADDED from E:\GANDHA\AndroidProject\Production\SuperRetail\superRetail\src\main\AndroidManifest.xml:127:13-50
	android:label
		ADDED from E:\GANDHA\AndroidProject\Production\SuperRetail\superRetail\src\main\AndroidManifest.xml:126:13-68
	android:name
		ADDED from E:\GANDHA\AndroidProject\Production\SuperRetail\superRetail\src\main\AndroidManifest.xml:125:13-52
activity#com.joan.superretail.ARDetailActivity
ADDED from E:\GANDHA\AndroidProject\Production\SuperRetail\superRetail\src\main\AndroidManifest.xml:128:9-131:53
	android:screenOrientation
		ADDED from E:\GANDHA\AndroidProject\Production\SuperRetail\superRetail\src\main\AndroidManifest.xml:131:13-50
	android:label
		ADDED from E:\GANDHA\AndroidProject\Production\SuperRetail\superRetail\src\main\AndroidManifest.xml:130:13-60
	android:name
		ADDED from E:\GANDHA\AndroidProject\Production\SuperRetail\superRetail\src\main\AndroidManifest.xml:129:13-45
activity#com.joan.superretail.SalesReportActivity
ADDED from E:\GANDHA\AndroidProject\Production\SuperRetail\superRetail\src\main\AndroidManifest.xml:132:9-135:53
	android:screenOrientation
		ADDED from E:\GANDHA\AndroidProject\Production\SuperRetail\superRetail\src\main\AndroidManifest.xml:135:13-50
	android:label
		ADDED from E:\GANDHA\AndroidProject\Production\SuperRetail\superRetail\src\main\AndroidManifest.xml:134:13-64
	android:name
		ADDED from E:\GANDHA\AndroidProject\Production\SuperRetail\superRetail\src\main\AndroidManifest.xml:133:13-48
activity#com.joan.superretail.PreviewActivity
ADDED from E:\GANDHA\AndroidProject\Production\SuperRetail\superRetail\src\main\AndroidManifest.xml:136:9-139:52
	android:screenOrientation
		ADDED from E:\GANDHA\AndroidProject\Production\SuperRetail\superRetail\src\main\AndroidManifest.xml:139:13-49
	android:label
		ADDED from E:\GANDHA\AndroidProject\Production\SuperRetail\superRetail\src\main\AndroidManifest.xml:138:13-59
	android:name
		ADDED from E:\GANDHA\AndroidProject\Production\SuperRetail\superRetail\src\main\AndroidManifest.xml:137:13-44
activity#com.joan.superretail.ReturnReportDetailActivity
ADDED from E:\GANDHA\AndroidProject\Production\SuperRetail\superRetail\src\main\AndroidManifest.xml:140:9-143:53
	android:screenOrientation
		ADDED from E:\GANDHA\AndroidProject\Production\SuperRetail\superRetail\src\main\AndroidManifest.xml:143:13-50
	android:label
		ADDED from E:\GANDHA\AndroidProject\Production\SuperRetail\superRetail\src\main\AndroidManifest.xml:142:13-72
	android:name
		ADDED from E:\GANDHA\AndroidProject\Production\SuperRetail\superRetail\src\main\AndroidManifest.xml:141:13-55
activity#com.joan.superretail.SalesReportDetailActivity
ADDED from E:\GANDHA\AndroidProject\Production\SuperRetail\superRetail\src\main\AndroidManifest.xml:144:9-147:53
	android:screenOrientation
		ADDED from E:\GANDHA\AndroidProject\Production\SuperRetail\superRetail\src\main\AndroidManifest.xml:147:13-50
	android:label
		ADDED from E:\GANDHA\AndroidProject\Production\SuperRetail\superRetail\src\main\AndroidManifest.xml:146:13-71
	android:name
		ADDED from E:\GANDHA\AndroidProject\Production\SuperRetail\superRetail\src\main\AndroidManifest.xml:145:13-54
activity#com.joan.superretail.ReportMenuActivity
ADDED from E:\GANDHA\AndroidProject\Production\SuperRetail\superRetail\src\main\AndroidManifest.xml:148:9-151:53
	android:screenOrientation
		ADDED from E:\GANDHA\AndroidProject\Production\SuperRetail\superRetail\src\main\AndroidManifest.xml:151:13-50
	android:label
		ADDED from E:\GANDHA\AndroidProject\Production\SuperRetail\superRetail\src\main\AndroidManifest.xml:150:13-63
	android:name
		ADDED from E:\GANDHA\AndroidProject\Production\SuperRetail\superRetail\src\main\AndroidManifest.xml:149:13-47
activity#com.joan.superretail.SOReportDetailActivity
ADDED from E:\GANDHA\AndroidProject\Production\SuperRetail\superRetail\src\main\AndroidManifest.xml:152:9-155:53
	android:screenOrientation
		ADDED from E:\GANDHA\AndroidProject\Production\SuperRetail\superRetail\src\main\AndroidManifest.xml:155:13-50
	android:label
		ADDED from E:\GANDHA\AndroidProject\Production\SuperRetail\superRetail\src\main\AndroidManifest.xml:154:13-67
	android:name
		ADDED from E:\GANDHA\AndroidProject\Production\SuperRetail\superRetail\src\main\AndroidManifest.xml:153:13-51
activity#com.joan.superretail.ChangeIpActivity
ADDED from E:\GANDHA\AndroidProject\Production\SuperRetail\superRetail\src\main\AndroidManifest.xml:156:9-159:52
	android:screenOrientation
		ADDED from E:\GANDHA\AndroidProject\Production\SuperRetail\superRetail\src\main\AndroidManifest.xml:159:13-49
	android:label
		ADDED from E:\GANDHA\AndroidProject\Production\SuperRetail\superRetail\src\main\AndroidManifest.xml:158:13-61
	android:name
		ADDED from E:\GANDHA\AndroidProject\Production\SuperRetail\superRetail\src\main\AndroidManifest.xml:157:13-45
activity#com.joan.superretail.DashboardCustomerActivity
ADDED from E:\GANDHA\AndroidProject\Production\SuperRetail\superRetail\src\main\AndroidManifest.xml:160:9-63
	android:name
		ADDED from E:\GANDHA\AndroidProject\Production\SuperRetail\superRetail\src\main\AndroidManifest.xml:160:19-60
activity#com.joan.superretail.CnAvailableActivity
ADDED from E:\GANDHA\AndroidProject\Production\SuperRetail\superRetail\src\main\AndroidManifest.xml:161:9-164:20
	android:screenOrientation
		ADDED from E:\GANDHA\AndroidProject\Production\SuperRetail\superRetail\src\main\AndroidManifest.xml:163:13-50
	android:name
		ADDED from E:\GANDHA\AndroidProject\Production\SuperRetail\superRetail\src\main\AndroidManifest.xml:162:13-48
uses-sdk
INJECTED from E:\GANDHA\AndroidProject\Production\SuperRetail\superRetail\src\main\AndroidManifest.xml reason: use-sdk injection requested
INJECTED from E:\GANDHA\AndroidProject\Production\SuperRetail\superRetail\src\main\AndroidManifest.xml
INJECTED from E:\GANDHA\AndroidProject\Production\SuperRetail\superRetail\src\main\AndroidManifest.xml
MERGED from [com.android.support:appcompat-v7:27.1.1] C:\Users\user\.gradle\caches\transforms-1\files-1.1\appcompat-v7-27.1.1.aar\78d585637e38a05865ab52fa839dcfc7\AndroidManifest.xml:20:5-44
MERGED from [com.android.support:appcompat-v7:27.1.1] C:\Users\user\.gradle\caches\transforms-1\files-1.1\appcompat-v7-27.1.1.aar\78d585637e38a05865ab52fa839dcfc7\AndroidManifest.xml:20:5-44
MERGED from [com.android.support:support-v4:27.1.1] C:\Users\user\.gradle\caches\transforms-1\files-1.1\support-v4-27.1.1.aar\a797894e3538df89b307b5d110c17f91\AndroidManifest.xml:20:5-44
MERGED from [com.android.support:support-v4:27.1.1] C:\Users\user\.gradle\caches\transforms-1\files-1.1\support-v4-27.1.1.aar\a797894e3538df89b307b5d110c17f91\AndroidManifest.xml:20:5-44
MERGED from [com.android.support:support-fragment:27.1.1] C:\Users\user\.gradle\caches\transforms-1\files-1.1\support-fragment-27.1.1.aar\86858b3d73737565b762afacea6629ed\AndroidManifest.xml:20:5-44
MERGED from [com.android.support:support-fragment:27.1.1] C:\Users\user\.gradle\caches\transforms-1\files-1.1\support-fragment-27.1.1.aar\86858b3d73737565b762afacea6629ed\AndroidManifest.xml:20:5-44
MERGED from [com.android.support:animated-vector-drawable:27.1.1] C:\Users\user\.gradle\caches\transforms-1\files-1.1\animated-vector-drawable-27.1.1.aar\b6d448df90385b1d1bc73e99c8a72d97\AndroidManifest.xml:20:5-44
MERGED from [com.android.support:animated-vector-drawable:27.1.1] C:\Users\user\.gradle\caches\transforms-1\files-1.1\animated-vector-drawable-27.1.1.aar\b6d448df90385b1d1bc73e99c8a72d97\AndroidManifest.xml:20:5-44
MERGED from [com.android.support:support-core-ui:27.1.1] C:\Users\user\.gradle\caches\transforms-1\files-1.1\support-core-ui-27.1.1.aar\5886df34a5b3dabb54714bc620462594\AndroidManifest.xml:20:5-44
MERGED from [com.android.support:support-core-ui:27.1.1] C:\Users\user\.gradle\caches\transforms-1\files-1.1\support-core-ui-27.1.1.aar\5886df34a5b3dabb54714bc620462594\AndroidManifest.xml:20:5-44
MERGED from [com.android.support:support-core-utils:27.1.1] C:\Users\user\.gradle\caches\transforms-1\files-1.1\support-core-utils-27.1.1.aar\dd25e07bfdcc84821a5abda0e79d7dfe\AndroidManifest.xml:20:5-44
MERGED from [com.android.support:support-core-utils:27.1.1] C:\Users\user\.gradle\caches\transforms-1\files-1.1\support-core-utils-27.1.1.aar\dd25e07bfdcc84821a5abda0e79d7dfe\AndroidManifest.xml:20:5-44
MERGED from [com.android.support:support-vector-drawable:27.1.1] C:\Users\user\.gradle\caches\transforms-1\files-1.1\support-vector-drawable-27.1.1.aar\d01e801dadfafaa51498433ff73dc459\AndroidManifest.xml:20:5-44
MERGED from [com.android.support:support-vector-drawable:27.1.1] C:\Users\user\.gradle\caches\transforms-1\files-1.1\support-vector-drawable-27.1.1.aar\d01e801dadfafaa51498433ff73dc459\AndroidManifest.xml:20:5-44
MERGED from [com.android.support:support-media-compat:27.1.1] C:\Users\user\.gradle\caches\transforms-1\files-1.1\support-media-compat-27.1.1.aar\c3e189e73d51b0de8cc1b726b9526c93\AndroidManifest.xml:20:5-44
MERGED from [com.android.support:support-media-compat:27.1.1] C:\Users\user\.gradle\caches\transforms-1\files-1.1\support-media-compat-27.1.1.aar\c3e189e73d51b0de8cc1b726b9526c93\AndroidManifest.xml:20:5-44
MERGED from [com.android.support:support-compat:27.1.1] C:\Users\user\.gradle\caches\transforms-1\files-1.1\support-compat-27.1.1.aar\9af35729cb412f8fcce03a506bca52bd\AndroidManifest.xml:20:5-44
MERGED from [com.android.support:support-compat:27.1.1] C:\Users\user\.gradle\caches\transforms-1\files-1.1\support-compat-27.1.1.aar\9af35729cb412f8fcce03a506bca52bd\AndroidManifest.xml:20:5-44
MERGED from [android.arch.lifecycle:livedata-core:1.1.0] C:\Users\user\.gradle\caches\transforms-1\files-1.1\livedata-core-1.1.0.aar\238a54e43c53eb4faad470e3cd53fe60\AndroidManifest.xml:20:5-44
MERGED from [android.arch.lifecycle:livedata-core:1.1.0] C:\Users\user\.gradle\caches\transforms-1\files-1.1\livedata-core-1.1.0.aar\238a54e43c53eb4faad470e3cd53fe60\AndroidManifest.xml:20:5-44
MERGED from [android.arch.lifecycle:viewmodel:1.1.0] C:\Users\user\.gradle\caches\transforms-1\files-1.1\viewmodel-1.1.0.aar\19c4ea752263ded13f4b671bc855ac8d\AndroidManifest.xml:20:5-44
MERGED from [android.arch.lifecycle:viewmodel:1.1.0] C:\Users\user\.gradle\caches\transforms-1\files-1.1\viewmodel-1.1.0.aar\19c4ea752263ded13f4b671bc855ac8d\AndroidManifest.xml:20:5-44
MERGED from [android.arch.lifecycle:runtime:1.1.0] C:\Users\user\.gradle\caches\transforms-1\files-1.1\runtime-1.1.0.aar\8d1cd4b0f6e368c927907252f938b1b1\AndroidManifest.xml:20:5-44
MERGED from [android.arch.lifecycle:runtime:1.1.0] C:\Users\user\.gradle\caches\transforms-1\files-1.1\runtime-1.1.0.aar\8d1cd4b0f6e368c927907252f938b1b1\AndroidManifest.xml:20:5-44
MERGED from [android.arch.core:runtime:1.1.0] C:\Users\user\.gradle\caches\transforms-1\files-1.1\runtime-1.1.0.aar\38a747651361d5cf71134b56b14f5396\AndroidManifest.xml:20:5-44
MERGED from [android.arch.core:runtime:1.1.0] C:\Users\user\.gradle\caches\transforms-1\files-1.1\runtime-1.1.0.aar\38a747651361d5cf71134b56b14f5396\AndroidManifest.xml:20:5-44
INJECTED from E:\GANDHA\AndroidProject\Production\SuperRetail\superRetail\src\main\AndroidManifest.xml
INJECTED from E:\GANDHA\AndroidProject\Production\SuperRetail\superRetail\src\main\AndroidManifest.xml
	android:targetSdkVersion
		INJECTED from E:\GANDHA\AndroidProject\Production\SuperRetail\superRetail\src\main\AndroidManifest.xml
		ADDED from E:\GANDHA\AndroidProject\Production\SuperRetail\superRetail\src\main\AndroidManifest.xml
		INJECTED from E:\GANDHA\AndroidProject\Production\SuperRetail\superRetail\src\main\AndroidManifest.xml
	android:minSdkVersion
		INJECTED from E:\GANDHA\AndroidProject\Production\SuperRetail\superRetail\src\main\AndroidManifest.xml
		ADDED from E:\GANDHA\AndroidProject\Production\SuperRetail\superRetail\src\main\AndroidManifest.xml
		INJECTED from E:\GANDHA\AndroidProject\Production\SuperRetail\superRetail\src\main\AndroidManifest.xml
